{
  "entries":{"26M1a55SOnqtVXNGHgrx":{"updated_by":"0P48IsPw6RdjzH4CWhSG2oIFfov1","storyId":"8wE6d5RGA56NogH7gULk","content":"<h1>Chapter 2</h1><p><br></p><p>There is a big old chapter on some things.</p>","id":"26M1a55SOnqtVXNGHgrx","created_at":{"_seconds":1548521449,"_nanoseconds":0},"updated_at":{"_seconds":1548521470,"_nanoseconds":209000000},"created_by":"0P48IsPw6RdjzH4CWhSG2oIFfov1"},"7dA0rrfuQyWxjUSmFvra":{"created_by":"knsSCSQMBzXqhOiH5DYMnf8ypdw2","updated_by":"knsSCSQMBzXqhOiH5DYMnf8ypdw2","storyId":"nNwGWevMUC7wINAppVbs","content":"<p>And here is some stuff.</p><p><br></p>","id":"7dA0rrfuQyWxjUSmFvra","created_at":{"_seconds":1548547738,"_nanoseconds":933000000},"updated_at":{"_seconds":1548547968,"_nanoseconds":53000000}},"8qoMokdOpmFHuKrLcBgT":{"created_at":{"_seconds":1548630221,"_nanoseconds":367000000},"updated_at":{"_seconds":1548630490,"_nanoseconds":476000000},"words":10,"created_by":"jpNMrRB7caQXisFImYkhG1Bx61T2","updated_by":"jpNMrRB7caQXisFImYkhG1Bx61T2","storyId":"GyJ6hwxxMKqksYqtTKw8","sentences":2,"content":"<p>And here is some more. And here is some more. And here is some more.</p>","id":"8qoMokdOpmFHuKrLcBgT"},"Bb6Lwp7MZLOgMHIZaKC1":{"created_at":{"_seconds":1548548153,"_nanoseconds":45000000},"updated_at":{"_seconds":1548687028,"_nanoseconds":868000000},"words":6,"created_by":"knsSCSQMBzXqhOiH5DYMnf8ypdw2","updated_by":"knsSCSQMBzXqhOiH5DYMnf8ypdw2","storyId":"OMvO2nAKBZJ6ie2HVT6c","sentences":1,"content":"<p>Enter some text and whatnot here.  And some more text.</p>","id":"Bb6Lwp7MZLOgMHIZaKC1"},"N3PdtjTFICVLBqZdeCKU":{"updated_at":{"_seconds":1548816416,"_nanoseconds":373000000},"words":6,"created_by":"0P48IsPw6RdjzH4CWhSG2oIFfov1","updated_by":"0P48IsPw6RdjzH4CWhSG2oIFfov1","storyId":"4yuG96LeQ59yJyrTilvi","sentences":1,"content":"<p>Let's get it started in here! testing and stuff.</p>","id":"N3PdtjTFICVLBqZdeCKU","created_at":{"_seconds":1548743072,"_nanoseconds":327000000}},"O3DGgx5lohWVYsOT9Lkf":{"created_at":{"_seconds":1549855856,"_nanoseconds":493000000},"updated_at":{"_seconds":1550460793,"_nanoseconds":609000000},"words":15,"created_by":"SHIpO5GxTTVNVuY7PEjMu4AJp7I2","updated_by":"SHIpO5GxTTVNVuY7PEjMu4AJp7I2","storyId":"jjDaeRmvlUFH44PqIAGc","sentences":2,"content":"<p>This is where you type your text.</p>","id":"O3DGgx5lohWVYsOT9Lkf"},"O8hlFA9l1FCLZfpRiGzT":{"updated_by":"knsSCSQMBzXqhOiH5DYMnf8ypdw2","storyId":"Hm3aAlXoON2VKXxcUMMC","content":"<p>We do it like that</p><p><br></p><p>and there are some more things.</p>","id":"O8hlFA9l1FCLZfpRiGzT","created_at":{"_seconds":1548101411,"_nanoseconds":742000000},"updated_at":{"_seconds":1548130738,"_nanoseconds":235000000},"created_by":"knsSCSQMBzXqhOiH5DYMnf8ypdw2"},"QsOhjgEEEc1kGz8JczZu":{"id":"QsOhjgEEEc1kGz8JczZu","created_at":{"_seconds":1548626354,"_nanoseconds":607000000},"updated_at":{"_seconds":1548629843,"_nanoseconds":285000000},"words":24,"created_by":"jpNMrRB7caQXisFImYkhG1Bx61T2","updated_by":"jpNMrRB7caQXisFImYkhG1Bx61T2","storyId":"45fOfxK314bzw98yg5Pq","sentences":6,"content":"<p>Some things are here. And more things are there. As I type. And some more sentences. and some other things. And a last sentence</p>"},"XFbVBB8MzHHyGN0TkfFc":{"created_by":"knsSCSQMBzXqhOiH5DYMnf8ypdw2","updated_by":"knsSCSQMBzXqhOiH5DYMnf8ypdw2","storyId":"OMvO2nAKBZJ6ie2HVT6c","sentences":1,"content":"<p>And now I can type in here too.  We will also be typing and doing some stuff.</p>","id":"XFbVBB8MzHHyGN0TkfFc","created_at":{"_seconds":1548548205,"_nanoseconds":943000000},"updated_at":{"_seconds":1548772986,"_nanoseconds":114000000},"words":8},"ZGrpV7w0eyaPd6NRcEEh":{"updated_by":"knsSCSQMBzXqhOiH5DYMnf8ypdw2","storyId":"nNwGWevMUC7wINAppVbs","content":"<p>This is where the editing goes</p><p><br></p><p><br></p>","id":"ZGrpV7w0eyaPd6NRcEEh","created_at":{"_seconds":1548546079,"_nanoseconds":94000000},"updated_at":{"_seconds":1548546097,"_nanoseconds":583000000},"created_by":"knsSCSQMBzXqhOiH5DYMnf8ypdw2"},"ei9euIOgxTa2RNx8w0Va":{"updated_at":{"_seconds":1548622888,"_nanoseconds":786000000},"created_by":"cuLJCfufrRWDPhrCtLAYreyQImG3","updated_by":"cuLJCfufrRWDPhrCtLAYreyQImG3","storyId":"FPVL4qJEGrTDro72vfmw","content":"<p>This is the first entry</p><p><br></p><p><br></p>","id":"ei9euIOgxTa2RNx8w0Va","created_at":{"_seconds":1548599395,"_nanoseconds":21000000}},"ijx3GAdLfetin9RupJdG":{"id":"ijx3GAdLfetin9RupJdG","created_at":{"_seconds":1548258380,"_nanoseconds":825000000},"updated_at":{"_seconds":1548527845,"_nanoseconds":2000000},"created_by":"knsSCSQMBzXqhOiH5DYMnf8ypdw2","updated_by":"knsSCSQMBzXqhOiH5DYMnf8ypdw2","storyId":"oxPyPzfwpMc36puNcpIj","content":"<p>New Entry 22222</p><p><br></p><p><br></p>"},"ktAWC9CFXeimZ0xbcdw1":{"created_at":{"_seconds":1548138315,"_nanoseconds":92000000},"updated_at":{"_seconds":1548138772,"_nanoseconds":344000000},"created_by":"knsSCSQMBzXqhOiH5DYMnf8ypdw2","updated_by":"knsSCSQMBzXqhOiH5DYMnf8ypdw2","storyId":"0a4ab3161avYlSgSyoEb","content":"<p>And stuff</p><p><br></p><p><br></p>","id":"ktAWC9CFXeimZ0xbcdw1"},"lP5gnRsel4zAf2ipSQaP":{"updated_by":"knsSCSQMBzXqhOiH5DYMnf8ypdw2","storyId":"vHbdZFZXdtB7HiPvNXyj","content":"<p>Uh this goes here?</p><p><br></p><p><br></p>","id":"lP5gnRsel4zAf2ipSQaP","created_at":{"_seconds":1548547988,"_nanoseconds":945000000},"updated_at":{"_seconds":1548548017,"_nanoseconds":290000000},"created_by":"knsSCSQMBzXqhOiH5DYMnf8ypdw2"},"mtyttUUDxgD41XXuz4P2":{"id":"mtyttUUDxgD41XXuz4P2","created_at":{"_seconds":1548208564,"_nanoseconds":641000000},"updated_at":{"_seconds":1548208578,"_nanoseconds":561000000},"created_by":"knsSCSQMBzXqhOiH5DYMnf8ypdw2","updated_by":"knsSCSQMBzXqhOiH5DYMnf8ypdw2","storyId":"Hm3aAlXoON2VKXxcUMMC","content":"<p>New stuff and whatbnot</p><p><br></p>"},"pFWTQMugJypoOAVBjqB3":{"id":"pFWTQMugJypoOAVBjqB3","created_at":{"_seconds":1548208637,"_nanoseconds":720000000},"updated_at":{"_seconds":1548208645,"_nanoseconds":589000000},"created_by":"knsSCSQMBzXqhOiH5DYMnf8ypdw2","updated_by":"knsSCSQMBzXqhOiH5DYMnf8ypdw2","storyId":"PPTj4cheSrWTjC2IU3gX","content":"<p>My first entry</p><p><br></p>"},"pPDJcediUj7dqoOcIOSu":{"id":"pPDJcediUj7dqoOcIOSu","created_at":{"_seconds":1550387940,"_nanoseconds":858000000},"updated_at":{"_seconds":1550461253,"_nanoseconds":124000000},"words":17,"created_by":"SHIpO5GxTTVNVuY7PEjMu4AJp7I2","updated_by":"SHIpO5GxTTVNVuY7PEjMu4AJp7I2","storyId":"jjDaeRmvlUFH44PqIAGc","sentences":2,"content":"<p>And the new things that I type will be saved here now. and some things.</p>"},"qo8EvDtTkIytFIAIy90c":{"created_by":"knsSCSQMBzXqhOiH5DYMnf8ypdw2","updated_by":"knsSCSQMBzXqhOiH5DYMnf8ypdw2","storyId":"Hm3aAlXoON2VKXxcUMMC","content":"<p>HEre is a fourth</p><p><br></p><p>ya hear</p>","id":"qo8EvDtTkIytFIAIy90c","created_at":{"_seconds":1548101683,"_nanoseconds":306000000},"updated_at":{"_seconds":1548208552,"_nanoseconds":773000000}},"rYNRydwbPXMntMb9cihI":{"updated_by":"knsSCSQMBzXqhOiH5DYMnf8ypdw2","storyId":"Hm3aAlXoON2VKXxcUMMC","content":"<p>A tester one</p><p><br></p><p>and some other things</p>","id":"rYNRydwbPXMntMb9cihI","created_at":{"_seconds":1548101180,"_nanoseconds":95000000},"updated_at":{"_seconds":1548126971,"_nanoseconds":362000000},"created_by":"knsSCSQMBzXqhOiH5DYMnf8ypdw2"},"rcMtvz43LXNhLIYz1Spg":{"id":"rcMtvz43LXNhLIYz1Spg","created_at":{"_seconds":1548169011,"_nanoseconds":455000000},"updated_at":{"_seconds":1548208554,"_nanoseconds":272000000},"created_by":"knsSCSQMBzXqhOiH5DYMnf8ypdw2","updated_by":"knsSCSQMBzXqhOiH5DYMnf8ypdw2","storyId":"Hm3aAlXoON2VKXxcUMMC","content":"<p>And some stuff.</p><p><br></p><p><br></p><p><br></p><h1><strong>write your stuff.</strong></h1><p><br></p><p>And <span style=\"color: rgb(230, 0, 0);\">things</span>.f sdflkjsdlfk jsdaf lksdjf lksdjaf lksdjf asldj</p>"},"uMujHJ9qOlgd3NZDHHgF":{"created_by":"knsSCSQMBzXqhOiH5DYMnf8ypdw2","updated_by":"knsSCSQMBzXqhOiH5DYMnf8ypdw2","storyId":"H7rehwoR5CQ5z5FzwIEQ","content":"<p>Ma entry dawg</p><p><br></p>","id":"uMujHJ9qOlgd3NZDHHgF","created_at":{"_seconds":1548539844,"_nanoseconds":159000000},"updated_at":{"_seconds":1548543003,"_nanoseconds":230000000}},"yWtpo3jaGU3z7CPGi15U":{"created_at":{"_seconds":1548521413,"_nanoseconds":408000000},"updated_at":{"_seconds":1548521445,"_nanoseconds":899000000},"created_by":"0P48IsPw6RdjzH4CWhSG2oIFfov1","updated_by":"0P48IsPw6RdjzH4CWhSG2oIFfov1","storyId":"8wE6d5RGA56NogH7gULk","content":"<h1>Thus begins JOJO the Magnificent</h1><p><br></p><p>and we do some more.</p><p><br></p>","id":"yWtpo3jaGU3z7CPGi15U"}},
  "stories":{"0a4ab3161avYlSgSyoEb":{"created_at":{"_seconds":1548138066,"_nanoseconds":113000000},"title":"Pubby Test2","private":false,"updated_at":{"_seconds":1548542860,"_nanoseconds":981000000},"entries":["ktAWC9CFXeimZ0xbcdw1"],"created_by_name":"JimmehBoi","created_by":"knsSCSQMBzXqhOiH5DYMnf8ypdw2","likes":[],"updated_by":"knsSCSQMBzXqhOiH5DYMnf8ypdw2","id":"0a4ab3161avYlSgSyoEb"},"45fOfxK314bzw98yg5Pq":{"entries":["QsOhjgEEEc1kGz8JczZu"],"created_by_name":"Test5","created_by":"jpNMrRB7caQXisFImYkhG1Bx61T2","likes":[],"updated_by":"jpNMrRB7caQXisFImYkhG1Bx61T2","id":"45fOfxK314bzw98yg5Pq","created_at":{"_seconds":1548626350,"_nanoseconds":662000000},"title":"Test Counter","private":true,"updated_at":{"_seconds":1548629843,"_nanoseconds":290000000}},"4yuG96LeQ59yJyrTilvi":{"id":"4yuG96LeQ59yJyrTilvi","created_at":{"_seconds":1548651456,"_nanoseconds":648000000},"title":"Papaloudous","private":false,"updated_at":{"_seconds":1548818257,"_nanoseconds":593000000},"entries":["N3PdtjTFICVLBqZdeCKU"],"created_by_name":"Franklin","created_by":"0P48IsPw6RdjzH4CWhSG2oIFfov1","likes":["0P48IsPw6RdjzH4CWhSG2oIFfov1"],"updated_by":"0P48IsPw6RdjzH4CWhSG2oIFfov1"},"8wE6d5RGA56NogH7gULk":{"updated_by":"0P48IsPw6RdjzH4CWhSG2oIFfov1","id":"8wE6d5RGA56NogH7gULk","created_at":{"_seconds":1548520668,"_nanoseconds":693000000},"title":"Mojo Jojo","private":false,"updated_at":{"_seconds":1548651203,"_nanoseconds":961000000},"entries":["yWtpo3jaGU3z7CPGi15U","26M1a55SOnqtVXNGHgrx","Dd5GvQo8jyyC9x8YVQA2"],"created_by_name":"Franklin","created_by":"0P48IsPw6RdjzH4CWhSG2oIFfov1","likes":["7qGYyIJSGPYJBb5pmNCctNhux1y2","cuLJCfufrRWDPhrCtLAYreyQImG3"]},"CtHCoO8YIokd6zgZOGgB":{"entries":[],"created_by_name":"JimmehBoi","created_by":"HELslaFgR6dT5ceipplTRcBTDKn2","likes":[],"id":"CtHCoO8YIokd6zgZOGgB","created_at":{"_seconds":1549333911,"_nanoseconds":985000000},"title":"Testing2","private":true},"FEgvleBpGaEjJaQN1M2g":{"created_at":{"_seconds":1547587006,"_nanoseconds":354000000},"title":"Butter","private":true,"entries":["'someId'","someOtherId"],"created_by_name":"JimmehBoi","created_by":"zzzzz","likes":[],"id":"FEgvleBpGaEjJaQN1M2g"},"FPVL4qJEGrTDro72vfmw":{"updated_by":"0P48IsPw6RdjzH4CWhSG2oIFfov1","id":"FPVL4qJEGrTDro72vfmw","created_at":{"_seconds":1548599216,"_nanoseconds":407000000},"title":"Cracked Article 1","private":false,"updated_at":{"_seconds":1548742542,"_nanoseconds":377000000},"entries":["ei9euIOgxTa2RNx8w0Va"],"created_by_name":"Samantha","created_by":"cuLJCfufrRWDPhrCtLAYreyQImG3","likes":["cuLJCfufrRWDPhrCtLAYreyQImG3","jpNMrRB7caQXisFImYkhG1Bx61T2","0P48IsPw6RdjzH4CWhSG2oIFfov1"]},"GyJ6hwxxMKqksYqtTKw8":{"id":"GyJ6hwxxMKqksYqtTKw8","created_at":{"_seconds":1548630217,"_nanoseconds":694000000},"title":"Another onez","private":true,"updated_at":{"_seconds":1548630490,"_nanoseconds":480000000},"entries":["8qoMokdOpmFHuKrLcBgT"],"created_by_name":"Test5","created_by":"jpNMrRB7caQXisFImYkhG1Bx61T2","likes":[],"updated_by":"jpNMrRB7caQXisFImYkhG1Bx61T2"},"H7rehwoR5CQ5z5FzwIEQ":{"created_by_name":"JimmehBoi","created_by":"knsSCSQMBzXqhOiH5DYMnf8ypdw2","likes":["cuLJCfufrRWDPhrCtLAYreyQImG3"],"updated_by":"knsSCSQMBzXqhOiH5DYMnf8ypdw2","id":"H7rehwoR5CQ5z5FzwIEQ","created_at":{"_seconds":1548539837,"_nanoseconds":801000000},"title":"Billabongo Boyz","private":false,"updated_at":{"_seconds":1548773033,"_nanoseconds":163000000},"entries":["uMujHJ9qOlgd3NZDHHgF","G6pKUazVIb6kPe43bJT7"]},"Hm3aAlXoON2VKXxcUMMC":{"created_at":{"_seconds":1547616214,"_nanoseconds":879000000},"title":"My newest story 2","private":true,"updated_at":{"_seconds":1548208578,"_nanoseconds":585000000},"entries":["rYNRydwbPXMntMb9cihI","O8hlFA9l1FCLZfpRiGzT","W9wG4T9SWYgV19ADWYTe","qo8EvDtTkIytFIAIy90c","qdepcorwAhYSkf1fKDqi","rcMtvz43LXNhLIYz1Spg","mtyttUUDxgD41XXuz4P2"],"created_by_name":"JimmehBoi","created_by":"knsSCSQMBzXqhOiH5DYMnf8ypdw2","likes":[],"updated_by":"knsSCSQMBzXqhOiH5DYMnf8ypdw2","id":"Hm3aAlXoON2VKXxcUMMC"},"KZuAJzRRE67kvEBCY9ga":{"likes":[],"id":"KZuAJzRRE67kvEBCY9ga","created_at":{"_seconds":1547587102,"_nanoseconds":973000000},"title":"Test3","private":true,"entries":[],"created_by_name":"JimmehBoi","created_by":"knsSCSQMBzXqhOiH5DYMnf8ypdw2"},"OMvO2nAKBZJ6ie2HVT6c":{"updated_by":"knsSCSQMBzXqhOiH5DYMnf8ypdw2","id":"OMvO2nAKBZJ6ie2HVT6c","created_at":{"_seconds":1548548141,"_nanoseconds":846000000},"title":"New Ladder","private":false,"updated_at":{"_seconds":1548903458,"_nanoseconds":396000000},"entries":["Bb6Lwp7MZLOgMHIZaKC1","XFbVBB8MzHHyGN0TkfFc","kWLcg5wF8PwUFoj3ioOe","hzSwOfoYa3oKEmEpLH4S"],"created_by_name":"JimmehBoi","created_by":"knsSCSQMBzXqhOiH5DYMnf8ypdw2","likes":["cuLJCfufrRWDPhrCtLAYreyQImG3","jpNMrRB7caQXisFImYkhG1Bx61T2","0P48IsPw6RdjzH4CWhSG2oIFfov1"]},"PPTj4cheSrWTjC2IU3gX":{"private":false,"updated_at":{"_seconds":1548622850,"_nanoseconds":140000000},"entries":["pFWTQMugJypoOAVBjqB3"],"created_by_name":"JimmehBoi","created_by":"knsSCSQMBzXqhOiH5DYMnf8ypdw2","likes":["cuLJCfufrRWDPhrCtLAYreyQImG3"],"updated_by":"cuLJCfufrRWDPhrCtLAYreyQImG3","id":"PPTj4cheSrWTjC2IU3gX","created_at":{"_seconds":1548208631,"_nanoseconds":41000000},"title":"Samantha's Story"},"QbfGBMIwJs3bljjKw1J9":{"id":"QbfGBMIwJs3bljjKw1J9","created_at":{"_seconds":1547605666,"_nanoseconds":968000000},"title":"Besty","private":true,"entries":[],"created_by_name":"JimmehBoi","created_by":"knsSCSQMBzXqhOiH5DYMnf8ypdw2","likes":[]},"T9ZNhAEqY0UeUNul3aB3":{"entries":[],"created_by_name":"JimmehBoi","created_by":"knsSCSQMBzXqhOiH5DYMnf8ypdw2","likes":[],"id":"T9ZNhAEqY0UeUNul3aB3","created_at":{"_seconds":1547605333,"_nanoseconds":863000000},"title":"Paddington","private":false},"Z8iq2R0tCHv0kebC4Cxw":{"likes":[],"id":"Z8iq2R0tCHv0kebC4Cxw","created_at":{"_seconds":1547606021,"_nanoseconds":463000000},"title":"Anastasian","private":true,"entries":[],"created_by_name":"JimmehBoi","created_by":"knsSCSQMBzXqhOiH5DYMnf8ypdw2"},"jjDaeRmvlUFH44PqIAGc":{"created_by_name":"JimmehBoi","created_by":"SHIpO5GxTTVNVuY7PEjMu4AJp7I2","likes":["SHIpO5GxTTVNVuY7PEjMu4AJp7I2"],"updated_by":"SHIpO5GxTTVNVuY7PEjMu4AJp7I2","id":"jjDaeRmvlUFH44PqIAGc","created_at":{"_seconds":1549855364,"_nanoseconds":378000000},"title":"Bestest story","private":false,"updated_at":{"_seconds":1550461301,"_nanoseconds":890000000},"entries":["O3DGgx5lohWVYsOT9Lkf","pPDJcediUj7dqoOcIOSu"]},"mpSoEv5DEoAMGoO1V0IQ":{"created_by_name":"JimmehBoi","created_by":"knsSCSQMBzXqhOiH5DYMnf8ypdw2","likes":[],"id":"mpSoEv5DEoAMGoO1V0IQ","created_at":{"_seconds":1547605886,"_nanoseconds":656000000},"title":"Brighton","private":true,"entries":[]},"nNwGWevMUC7wINAppVbs":{"private":true,"updated_at":{"_seconds":1548547968,"_nanoseconds":64000000},"entries":["ZGrpV7w0eyaPd6NRcEEh","7dA0rrfuQyWxjUSmFvra"],"created_by_name":"JimmehBoi","created_by":"knsSCSQMBzXqhOiH5DYMnf8ypdw2","likes":[],"updated_by":"knsSCSQMBzXqhOiH5DYMnf8ypdw2","id":"nNwGWevMUC7wINAppVbs","created_at":{"_seconds":1547584991,"_nanoseconds":628000000},"title":"Testing"},"oxPyPzfwpMc36puNcpIj":{"created_at":{"_seconds":1548258375,"_nanoseconds":546000000},"title":" Justin's Story 2","private":false,"updated_at":{"_seconds":1548542877,"_nanoseconds":949000000},"entries":["ijx3GAdLfetin9RupJdG"],"created_by_name":"JimmehBoi","created_by":"knsSCSQMBzXqhOiH5DYMnf8ypdw2","likes":[],"updated_by":"knsSCSQMBzXqhOiH5DYMnf8ypdw2","id":"oxPyPzfwpMc36puNcpIj"},"vHbdZFZXdtB7HiPvNXyj":{"created_by_name":"JimmehBoi","created_by":"knsSCSQMBzXqhOiH5DYMnf8ypdw2","likes":[],"updated_by":"knsSCSQMBzXqhOiH5DYMnf8ypdw2","id":"vHbdZFZXdtB7HiPvNXyj","created_at":{"_seconds":1547586884,"_nanoseconds":331000000},"title":"Bolith","private":true,"updated_at":{"_seconds":1548548017,"_nanoseconds":308000000},"entries":["lP5gnRsel4zAf2ipSQaP"]}},
  "users":{"0P48IsPw6RdjzH4CWhSG2oIFfov1":{"created_by":"0P48IsPw6RdjzH4CWhSG2oIFfov1","updated_by":"knsSCSQMBzXqhOiH5DYMnf8ypdw2","stories":["4yuG96LeQ59yJyrTilvi"],"id":"0P48IsPw6RdjzH4CWhSG2oIFfov1","coins":["1234","2223344","2223344","2223344","2223344","2223344","2223344","knsSCSQMBzXqhOiH5DYMnf8ypdw2"],"created_at":{"_seconds":1548520654,"_nanoseconds":939000000},"updated_at":{"_seconds":1548773030,"_nanoseconds":5000000},"displayName":"Franklin","entries":["N3PdtjTFICVLBqZdeCKU"]},"7qGYyIJSGPYJBb5pmNCctNhux1y2":{"created_at":{"_seconds":1547344645,"_nanoseconds":663000000},"displayName":"Test3","id":"7qGYyIJSGPYJBb5pmNCctNhux1y2","created_by":"7qGYyIJSGPYJBb5pmNCctNhux1y2"},"SHIpO5GxTTVNVuY7PEjMu4AJp7I2":{"displayName":"JimmehBoi","entries":["O3DGgx5lohWVYsOT9Lkf","pPDJcediUj7dqoOcIOSu"],"created_by":"SHIpO5GxTTVNVuY7PEjMu4AJp7I2","updated_by":"SHIpO5GxTTVNVuY7PEjMu4AJp7I2","stories":["jjDaeRmvlUFH44PqIAGc"],"id":"SHIpO5GxTTVNVuY7PEjMu4AJp7I2","created_at":{"_seconds":1549855090,"_nanoseconds":615000000},"theme":"","updated_at":{"_seconds":1550449816,"_nanoseconds":713000000}},"cuLJCfufrRWDPhrCtLAYreyQImG3":{"created_by":"cuLJCfufrRWDPhrCtLAYreyQImG3","updated_by":"0P48IsPw6RdjzH4CWhSG2oIFfov1","id":"cuLJCfufrRWDPhrCtLAYreyQImG3","coins":["0P48IsPw6RdjzH4CWhSG2oIFfov1"],"created_at":{"_seconds":1548599180,"_nanoseconds":675000000},"updated_at":{"_seconds":1548742542,"_nanoseconds":379000000},"displayName":"Samantha"},"jpNMrRB7caQXisFImYkhG1Bx61T2":{"id":"jpNMrRB7caQXisFImYkhG1Bx61T2","created_at":{"_seconds":1548623005,"_nanoseconds":804000000},"updated_at":{"_seconds":1548623005,"_nanoseconds":982000000},"displayName":"Test5","created_by":"jpNMrRB7caQXisFImYkhG1Bx61T2","updated_by":"jpNMrRB7caQXisFImYkhG1Bx61T2"}}
}